#208 - Leon | 

owner = A13
controller = A13
add_core = A13
add_core = A76
culture = bluefoot_halfling
religion = regent_court

hre = yes

base_tax = 2
base_production = 2
base_manpower = 2

trade_goods = grain

capital = ""

is_city = yes








