#393 - Jabal Shammar

owner = F07
controller = F07
add_core = F07
add_core = F57
culture = west_sandfang_gnoll
religion = xhazobkult

hre = no

base_tax = 4
base_production = 3
base_manpower = 3

trade_goods = iron

capital = ""

is_city = yes

add_permanent_province_modifier = {
	name = human_minority_oppressed_large
	duration = -1
}






