#430 - Bushehr

owner = A59
controller = A59
add_core = A59
culture = corvurian
religion = regent_court

hre = no

base_tax = 5
base_production = 3
base_manpower = 3

trade_goods = livestock

capital = ""

is_city = yes






