#100 - Picardie | 

owner = A09
controller = A09
add_core = A09
culture = sorncosti
religion = regent_court
hre = no
base_tax = 4
base_production = 4
trade_goods = fish
base_manpower = 3
capital = ""
is_city = yes







