edict_religion_enforced = {
	potential = {
		OR = {
			current_age = age_of_reformation
			current_age = age_of_absolutism
		}
	}
	
	allow = {
		OR = {
			AND = {
				custom_trigger_tooltip = {
					tooltip =edict_religion_enforced_tooltip
					has_country_flag = religion_enforced_edict
				}
				current_age = age_of_reformation
			}
		current_age = age_of_absolutism
		}
	}
	
	modifier = {
		local_religious_conversion_resistance = 0.90
	}
	
	color = {  116 198 240  }
	
	
	ai_will_do = {
		factor = 0
	}
}